%YAML 1.1
%TAG !u! tag:unity3d.com,2011:
--- !u!74 &7400000
AnimationClip:
  m_ObjectHideFlags: 0
  m_CorrespondingSourceObject: {fileID: 0}
  m_PrefabInstance: {fileID: 0}
  m_PrefabAsset: {fileID: 0}
  m_Name: anim_running
  serializedVersion: 6
  m_Legacy: 0
  m_Compressed: 0
  m_UseHighQualityCurve: 1
  m_RotationCurves: []
  m_CompressedRotationCurves: []
  m_EulerCurves: []
  m_PositionCurves: []
  m_ScaleCurves: []
  m_FloatCurves: []
  m_PPtrCurves:
  - curve:
    - time: 0
      value: {fileID: 8247062725711787034, guid: a2954f958399f80468beb7693455dfdc, type: 3}
    - time: 0.033333335
      value: {fileID: -1209840581324893063, guid: a2954f958399f80468beb7693455dfdc, type: 3}
    - time: 0.083333336
      value: {fileID: -5229994830288914907, guid: a2954f958399f80468beb7693455dfdc, type: 3}
    - time: 0.11666667
      value: {fileID: -841948808737915953, guid: a2954f958399f80468beb7693455dfdc, type: 3}
    - time: 0.15
      value: {fileID: 5423488145617170941, guid: a2954f958399f80468beb7693455dfdc, type: 3}
    - time: 0.2
      value: {fileID: 2608349764106672621, guid: a2954f958399f80468beb7693455dfdc, type: 3}
    - time: 0.23333333
      value: {fileID: -2542371460539700679, guid: a2954f958399f80468beb7693455dfdc, type: 3}
    - time: 0.28333333
      value: {fileID: -4183731152724879303, guid: a2954f958399f80468beb7693455dfdc, type: 3}
    - time: 0.31666666
      value: {fileID: 5122552451117383514, guid: a2954f958399f80468beb7693455dfdc, type: 3}
    - time: 0.35
      value: {fileID: 3667564909087408003, guid: a2954f958399f80468beb7693455dfdc, type: 3}
    - time: 0.4
      value: {fileID: -566845480568436948, guid: a2954f958399f80468beb7693455dfdc, type: 3}
    - time: 0.43333334
      value: {fileID: -8322558962791576238, guid: a2954f958399f80468beb7693455dfdc, type: 3}
    - time: 0.46666667
      value: {fileID: 7332012605969647211, guid: a2954f958399f80468beb7693455dfdc, type: 3}
    - time: 0.51666665
      value: {fileID: 4382549509658805706, guid: a2954f958399f80468beb7693455dfdc, type: 3}
    - time: 0.55
      value: {fileID: 1702017534210623578, guid: a2954f958399f80468beb7693455dfdc, type: 3}
    - time: 0.5833333
      value: {fileID: -4141248493012304356, guid: a2954f958399f80468beb7693455dfdc, type: 3}
    - time: 0.6333333
      value: {fileID: 1288231763416697193, guid: a2954f958399f80468beb7693455dfdc, type: 3}
    - time: 0.6666667
      value: {fileID: 986740468990075404, guid: a2954f958399f80468beb7693455dfdc, type: 3}
    - time: 0.7
      value: {fileID: 4303795886709326434, guid: a2954f958399f80468beb7693455dfdc, type: 3}
    - time: 0.75
      value: {fileID: -7986540861695442054, guid: a2954f958399f80468beb7693455dfdc, type: 3}
    - time: 0.78333336
      value: {fileID: -2215816687561357473, guid: a2954f958399f80468beb7693455dfdc, type: 3}
    - time: 0.8333333
      value: {fileID: 272513118622963527, guid: a2954f958399f80468beb7693455dfdc, type: 3}
    - time: 0.8666667
      value: {fileID: -7618435189707116696, guid: a2954f958399f80468beb7693455dfdc, type: 3}
    - time: 0.9
      value: {fileID: -5692722582220544823, guid: a2954f958399f80468beb7693455dfdc, type: 3}
    - time: 0.95
      value: {fileID: 2041567536023820260, guid: a2954f958399f80468beb7693455dfdc, type: 3}
    - time: 0.98333335
      value: {fileID: -7332805278679182915, guid: a2954f958399f80468beb7693455dfdc, type: 3}
    attribute: m_Sprite
    path: 
    classID: 212
    script: {fileID: 0}
  m_SampleRate: 60
  m_WrapMode: 0
  m_Bounds:
    m_Center: {x: 0, y: 0, z: 0}
    m_Extent: {x: 0, y: 0, z: 0}
  m_ClipBindingConstant:
    genericBindings:
    - serializedVersion: 2
      path: 0
      attribute: 0
      script: {fileID: 0}
      typeID: 212
      customType: 23
      isPPtrCurve: 1
    pptrCurveMapping:
    - {fileID: 8247062725711787034, guid: a2954f958399f80468beb7693455dfdc, type: 3}
    - {fileID: -1209840581324893063, guid: a2954f958399f80468beb7693455dfdc, type: 3}
    - {fileID: -5229994830288914907, guid: a2954f958399f80468beb7693455dfdc, type: 3}
    - {fileID: -841948808737915953, guid: a2954f958399f80468beb7693455dfdc, type: 3}
    - {fileID: 5423488145617170941, guid: a2954f958399f80468beb7693455dfdc, type: 3}
    - {fileID: 2608349764106672621, guid: a2954f958399f80468beb7693455dfdc, type: 3}
    - {fileID: -2542371460539700679, guid: a2954f958399f80468beb7693455dfdc, type: 3}
    - {fileID: -4183731152724879303, guid: a2954f958399f80468beb7693455dfdc, type: 3}
    - {fileID: 5122552451117383514, guid: a2954f958399f80468beb7693455dfdc, type: 3}
    - {fileID: 3667564909087408003, guid: a2954f958399f80468beb7693455dfdc, type: 3}
    - {fileID: -566845480568436948, guid: a2954f958399f80468beb7693455dfdc, type: 3}
    - {fileID: -8322558962791576238, guid: a2954f958399f80468beb7693455dfdc, type: 3}
    - {fileID: 7332012605969647211, guid: a2954f958399f80468beb7693455dfdc, type: 3}
    - {fileID: 4382549509658805706, guid: a2954f958399f80468beb7693455dfdc, type: 3}
    - {fileID: 1702017534210623578, guid: a2954f958399f80468beb7693455dfdc, type: 3}
    - {fileID: -4141248493012304356, guid: a2954f958399f80468beb7693455dfdc, type: 3}
    - {fileID: 1288231763416697193, guid: a2954f958399f80468beb7693455dfdc, type: 3}
    - {fileID: 986740468990075404, guid: a2954f958399f80468beb7693455dfdc, type: 3}
    - {fileID: 4303795886709326434, guid: a2954f958399f80468beb7693455dfdc, type: 3}
    - {fileID: -7986540861695442054, guid: a2954f958399f80468beb7693455dfdc, type: 3}
    - {fileID: -2215816687561357473, guid: a2954f958399f80468beb7693455dfdc, type: 3}
    - {fileID: 272513118622963527, guid: a2954f958399f80468beb7693455dfdc, type: 3}
    - {fileID: -7618435189707116696, guid: a2954f958399f80468beb7693455dfdc, type: 3}
    - {fileID: -5692722582220544823, guid: a2954f958399f80468beb7693455dfdc, type: 3}
    - {fileID: 2041567536023820260, guid: a2954f958399f80468beb7693455dfdc, type: 3}
    - {fileID: -7332805278679182915, guid: a2954f958399f80468beb7693455dfdc, type: 3}
  m_AnimationClipSettings:
    serializedVersion: 2
    m_AdditiveReferencePoseClip: {fileID: 0}
    m_AdditiveReferencePoseTime: 0
    m_StartTime: 0
    m_StopTime: 1
    m_OrientationOffsetY: 0
    m_Level: 0
    m_CycleOffset: 0
    m_HasAdditiveReferencePose: 0
    m_LoopTime: 1
    m_LoopBlend: 0
    m_LoopBlendOrientation: 0
    m_LoopBlendPositionY: 0
    m_LoopBlendPositionXZ: 0
    m_KeepOriginalOrientation: 0
    m_KeepOriginalPositionY: 1
    m_KeepOriginalPositionXZ: 0
    m_HeightFromFeet: 0
    m_Mirror: 0
  m_EditorCurves: []
  m_EulerEditorCurves: []
  m_HasGenericRootTransform: 0
  m_HasMotionFloatCurves: 0
  m_Events:
  - time: 0.46666667
    functionName: Tuping
    data: 
    objectReferenceParameter: {fileID: 0}
    floatParameter: 0
    intParameter: 0
    messageOptions: 0
  - time: 0.98333335
    functionName: Tuping
    data: 
    objectReferenceParameter: {fileID: 0}
    floatParameter: 0
    intParameter: 0
    messageOptions: 0
